"item";"system"
"barley, grain";"production.plant.crop.ArableLand"
"cow manure, liquid";"production.animal.ruminant.DairyFarm"
"silage maize, whole";"production.plant.crop.ArableLand"
"('market for electricity, low voltage', 'electricity, low voltage')";"external.ExternInput"
"biogas digestate";"material.biogas.BiogasPlant"
"broiler carcass";"production.animal.poultry.BroilerFarm"
"broiler chicklet";"production.animal.poultry.BroilerHatchery"
"broiler manure composted";"material.composting.CompostPlant"
"broiler manure";"production.animal.poultry.BroilerFarm"
"broiler";"production.animal.poultry.BroilerFarm"
"corn";"production.plant.crop.ArableLand"
"hay";"production.plant.grass.Haymaking"
"machine operation, diesel, >= 18.64 kW and < 74.57 kW, high load factor";"external.ExternInput"
"machine operation, diesel, >= 74.57 kW, low load factor";"external.ExternInput"
"maize silage";"production.plant.crop.ArableLand"
"rapeseed meal";"production.plant.crop.ArableLand"
"rapeseed oil";"production.plant.crop.ArableLand"
"soybean meal";"production.plant.crop.ArableLand"
"tree leaves";"production.plant.street_trees.StreetTrees"
"water";"external.ExternInput"
"wheat bran";"production.plant.crop.ArableLand"
"winter wheat, grain";"production.plant.crop.ArableLand"
"rapeseed, grain";"production.plant.crop.ArableLand"
"food waste";"production.household.food_waste.FoodWaste"
"leaves compost";"material.composting.CompostingLeaves"