;"module"
"BiogasPlant";"material.biogas.BiogasPlant"
"BroilerFarm";"production.animal.poultry.BroilerFarm"
"CompostPlant";"material.composting.CompostPlant"
"ArableLand";"production.plant.crop.ArableLand"
"ExternOutput";"external.ExternOutput"
"ExternInput";"external.ExternInput"
"LandTransport";"transport.LandTransport"
"ManureSpreading";"production.plant.fertilization.ManureSpreading"
"ManureStorage";"material.storing.ManureStorage"
"SoilPool";"production.plant.soil.SoilPool"
"PyrolysisPlant";"material.biochar.PyrolysisPlant"
"BiocharSpreading";"production.plant.fertilization.BiocharSpreading"